{
  "$schema": "./node_modules/nx/schemas/nx-schema.json",
  "npmScope": "unvision",
  "affected": {
    "defaultBase": "master"
  },
  "implicitDependencies": {
    "pnpm-workspace.yaml": "*",
    "pnpm-lock.yaml": "*",
    "package.json": {
      "dependencies": "*",
      "devDependencies": "*"
    },
    ".eslintrc.json": "*"
  },
  "tasksRunnerOptions": {
    "default": {
      "runner": "nx/tasks-runners/default",
      "options": {
        "cacheableOperations": ["build", "lint", "test", "e2e"]
      }
    }
  },
  "targetDefaults": {
    "build": {
      "dependsOn": ["^build"]
    }
  },
  "workspaceLayout": {
    "appsDir": "packages",
    "libsDir": "packages"
  }
}
