{
  "$schema": "../../node_modules/nx/schemas/project-schema.json",
  "sourceRoot": "packages/primitives/src",
  "projectType": "library",
  "targets": {
    "build": {
      "executor": "@nrwl/js:tsc",
      "outputs": ["{options.outputPath}"],
      "options": {
        "outputPath": "dist/packages/primitives",
        "main": "packages/primitives/src/index.ts",
        "tsConfig": "packages/primitives/tsconfig.lib.json",
        "assets": ["LICENSE", "packages/primitives/*.md"]
      }
    },
    "lint": {
      "executor": "@nrwl/linter:eslint",
      "outputs": ["{options.outputFile}"],
      "options": {
        "lintFilePatterns": ["packages/primitives/**/*.ts"]
      }
    },
    "test": {
      "executor": "@nrwl/jest:jest",
      "outputs": ["coverage/packages/primitives"],
      "options": {
        "jestConfig": "packages/primitives/jest.config.ts",
        "passWithNoTests": true
      }
    },
    "version": {
      "executor": "@jscutlery/semver:version",
      "options": {
        "baseBranch": "master",
        "preset": "conventional",
        "push": true
      }
    }
  },
  "tags": []
}
